<define-tag pagetitle>DLA-3062-1 ublock-origin</define-tag>
<define-tag report_date>2022-6-29</define-tag>
<define-tag secrefs>CVE-2021-36773 Bug#991386</define-tag>
<define-tag packages>ublock-origin</define-tag>
<define-tag isvulnerable>yes</define-tag>
<define-tag fixed>yes</define-tag>
<define-tag fixed-section>no</define-tag>

#use wml::debian::security

