<define-tag pagetitle>DLA-3060-1 blender</define-tag>
<define-tag report_date>2022-6-28</define-tag>
<define-tag secrefs>CVE-2022-0544 CVE-2022-0545 CVE-2022-0546</define-tag>
<define-tag packages>blender</define-tag>
<define-tag isvulnerable>yes</define-tag>
<define-tag fixed>yes</define-tag>
<define-tag fixed-section>no</define-tag>

#use wml::debian::security

