<define-tag pagetitle>DLA-3053-1 vim</define-tag>
<define-tag report_date>2022-6-20</define-tag>
<define-tag secrefs>CVE-2021-3903 CVE-2022-0417 CVE-2022-0943 CVE-2022-1720 CVE-2022-1851 CVE-2022-1898 CVE-2022-1968 CVE-2022-2124 CVE-2022-2126</define-tag>
<define-tag packages>vim</define-tag>
<define-tag isvulnerable>yes</define-tag>
<define-tag fixed>yes</define-tag>
<define-tag fixed-section>no</define-tag>

#use wml::debian::security

