<define-tag pagetitle>DLA-2926-1 zsh</define-tag>
<define-tag report_date>2022-02-18</define-tag>
<define-tag secrefs>CVE-2021-45444</define-tag>
<define-tag packages>zsh</define-tag>
<define-tag isvulnerable>yes</define-tag>
<define-tag fixed>yes</define-tag>
<define-tag fixed-section>no</define-tag>

#use wml::debian::security

