<define-tag pagetitle>DLA-2991-1 twisted</define-tag>
<define-tag report_date>2022-05-10</define-tag>
<define-tag secrefs>CVE-2022-24801 Bug#1009030</define-tag>
<define-tag packages>twisted</define-tag>
<define-tag isvulnerable>yes</define-tag>
<define-tag fixed>yes</define-tag>
<define-tag fixed-section>no</define-tag>

#use wml::debian::security

