<define-tag pagetitle>DLA-2480-2 salt</define-tag>
<define-tag report_date>2022-01-03</define-tag>
<define-tag secrefs>CVE-2020-16846 CVE-2021-3197 CVE-2020-28243 CVE-2021-25282 CVE-2021-25284</define-tag>
<define-tag packages>salt</define-tag>
<define-tag isvulnerable>yes</define-tag>
<define-tag fixed>yes</define-tag>
<define-tag fixed-section>no</define-tag>

#use wml::debian::security

