<define-tag pagetitle>DLA-3004-1 htmldoc</define-tag>
<define-tag report_date>2022-05-13</define-tag>
<define-tag secrefs>CVE-2022-27114</define-tag>
<define-tag packages>htmldoc</define-tag>
<define-tag isvulnerable>yes</define-tag>
<define-tag fixed>yes</define-tag>
<define-tag fixed-section>no</define-tag>

#use wml::debian::security
