<define-tag pagetitle>DLA-3250-1 multipath-tools</define-tag>
<define-tag report_date>2022-12-29</define-tag>
<define-tag secrefs>CVE-2022-41973 CVE-2022-41974 Bug#1022742</define-tag>
<define-tag packages>multipath-tools</define-tag>
<define-tag isvulnerable>yes</define-tag>
<define-tag fixed>yes</define-tag>
<define-tag fixed-section>no</define-tag>

#use wml::debian::security

