<define-tag pagetitle>DLA-3114-1 mariadb-10.3</define-tag>
<define-tag report_date>2022-09-16</define-tag>
<define-tag secrefs>CVE-2018-25032 CVE-2021-46669 CVE-2022-21427 CVE-2022-27376 CVE-2022-27377 CVE-2022-27378 CVE-2022-27379 CVE-2022-27380 CVE-2022-27381 CVE-2022-27383 CVE-2022-27384 CVE-2022-27386 CVE-2022-27387 CVE-2022-27445 CVE-2022-27447 CVE-2022-27448 CVE-2022-27449 CVE-2022-27452 CVE-2022-27456 CVE-2022-27458 CVE-2022-32083 CVE-2022-32084 CVE-2022-32085 CVE-2022-32087 CVE-2022-32088 CVE-2022-32091</define-tag>
<define-tag packages>mariadb-10.3</define-tag>
<define-tag isvulnerable>yes</define-tag>
<define-tag fixed>yes</define-tag>
<define-tag fixed-section>no</define-tag>

#use wml::debian::security

