<define-tag pagetitle>DLA-3156-1 firefox-esr</define-tag>
<define-tag report_date>2022-10-20</define-tag>
<define-tag secrefs>CVE-2022-42927 CVE-2022-42928 CVE-2022-42929 CVE-2022-42932</define-tag>
<define-tag packages>firefox-esr</define-tag>
<define-tag isvulnerable>yes</define-tag>
<define-tag fixed>yes</define-tag>
<define-tag fixed-section>no</define-tag>

#use wml::debian::security

