<define-tag pagetitle>DLA-2944-1 nbd</define-tag>
<define-tag report_date>2022-03-10</define-tag>
<define-tag secrefs>CVE-2022-26495</define-tag>
<define-tag packages>nbd</define-tag>
<define-tag isvulnerable>yes</define-tag>
<define-tag fixed>yes</define-tag>
<define-tag fixed-section>no</define-tag>

#use wml::debian::security
