<define-tag pagetitle>DLA-2946-1 tryton-proteus</define-tag>
<define-tag report_date>2022-03-11</define-tag>
<define-tag secrefs>CVE-2022-26661 CVE-2022-26662</define-tag>
<define-tag packages>tryton-proteus</define-tag>
<define-tag isvulnerable>yes</define-tag>
<define-tag fixed>yes</define-tag>
<define-tag fixed-section>no</define-tag>

#use wml::debian::security

