<define-tag pagetitle>DLA-2957-1 libpano13</define-tag>
<define-tag report_date>2022-3-20</define-tag>
<define-tag secrefs>CVE-2021-33293 Bug#1008024</define-tag>
<define-tag packages>libpano13</define-tag>
<define-tag isvulnerable>yes</define-tag>
<define-tag fixed>yes</define-tag>
<define-tag fixed-section>no</define-tag>

#use wml::debian::security

