<define-tag pagetitle>DLA-3021-1 firefox-esr</define-tag>
<define-tag report_date>2022-05-24</define-tag>
<define-tag secrefs>CVE-2022-1529 CVE-2022-1802</define-tag>
<define-tag packages>firefox-esr</define-tag>
<define-tag isvulnerable>yes</define-tag>
<define-tag fixed>yes</define-tag>
<define-tag fixed-section>no</define-tag>

#use wml::debian::security

