<define-tag pagetitle>DLA-3152-1 glibc</define-tag>
<define-tag report_date>2022-10-20</define-tag>
<define-tag secrefs>CVE-2016-10228 CVE-2019-19126 CVE-2019-25013 CVE-2020-1752 CVE-2020-6096 CVE-2020-10029 CVE-2020-27618 CVE-2021-3326 CVE-2021-3999 CVE-2021-27645 CVE-2021-33574 CVE-2021-35942 CVE-2022-23218 CVE-2022-23219 Bug#856503 Bug#945250 Bug#953108 Bug#953788 Bug#961452 Bug#973914 Bug#979273 Bug#981198</define-tag>
<define-tag packages>glibc</define-tag>
<define-tag isvulnerable>yes</define-tag>
<define-tag fixed>yes</define-tag>
<define-tag fixed-section>no</define-tag>

#use wml::debian::security

