<define-tag pagetitle>DLA-3046-1 librecad</define-tag>
<define-tag report_date>2022-06-07</define-tag>
<define-tag secrefs>CVE-2021-21897</define-tag>
<define-tag packages>librecad</define-tag>
<define-tag isvulnerable>yes</define-tag>
<define-tag fixed>yes</define-tag>
<define-tag fixed-section>no</define-tag>

#use wml::debian::security
