<define-tag pagetitle>DLA-3023-1 puma</define-tag>
<define-tag report_date>2022-5-26</define-tag>
<define-tag secrefs>CVE-2019-16770 CVE-2020-5247 CVE-2022-23634 Bug#946312 Bug#952766 Bug#1005391</define-tag>
<define-tag packages>puma</define-tag>
<define-tag isvulnerable>yes</define-tag>
<define-tag fixed>yes</define-tag>
<define-tag fixed-section>no</define-tag>

#use wml::debian::security

