<define-tag pagetitle>DLA-3061-1 firejail</define-tag>
<define-tag report_date>2022-06-29</define-tag>
<define-tag secrefs>CVE-2022-31214 Bug#1012510</define-tag>
<define-tag packages>firejail</define-tag>
<define-tag isvulnerable>yes</define-tag>
<define-tag fixed>yes</define-tag>
<define-tag fixed-section>no</define-tag>

#use wml::debian::security

