<define-tag pagetitle>DLA-2979-1 usbguard</define-tag>
<define-tag report_date>2022-4-11</define-tag>
<define-tag secrefs>CVE-2019-25058 Bug#1008026</define-tag>
<define-tag packages>usbguard</define-tag>
<define-tag isvulnerable>yes</define-tag>
<define-tag fixed>yes</define-tag>
<define-tag fixed-section>no</define-tag>

#use wml::debian::security

