<define-tag pagetitle>DLA-2890-1 libspf2</define-tag>
<define-tag report_date>2022-1-21</define-tag>
<define-tag secrefs>CVE-2021-33912 CVE-2021-33913</define-tag>
<define-tag packages>libspf2</define-tag>
<define-tag isvulnerable>yes</define-tag>
<define-tag fixed>yes</define-tag>
<define-tag fixed-section>no</define-tag>

#use wml::debian::security

