<define-tag pagetitle>DSA-4892-1 python-bleach</define-tag>
<define-tag report_date>2021-4-18</define-tag>
<define-tag secrefs>CVE-2021-23980 Bug#986251</define-tag>
<define-tag packages>python-bleach</define-tag>
<define-tag isvulnerable>yes</define-tag>
<define-tag fixed>yes</define-tag>
<define-tag fixed-section>no</define-tag>

#use wml::debian::security



</dl>
