<define-tag pagetitle>DSA-4871-1 tor</define-tag>
<define-tag report_date>2021-3-16</define-tag>
<define-tag secrefs>CVE-2021-28089 CVE-2021-28090</define-tag>
<define-tag packages>tor</define-tag>
<define-tag isvulnerable>yes</define-tag>
<define-tag fixed>yes</define-tag>
<define-tag fixed-section>no</define-tag>

#use wml::debian::security



</dl>
