<define-tag pagetitle>DSA-4850-1 libzstd</define-tag>
<define-tag report_date>2021-2-10</define-tag>
<define-tag secrefs>Bug#981404</define-tag>
<define-tag packages>libzstd</define-tag>
<define-tag isvulnerable>yes</define-tag>
<define-tag fixed>yes</define-tag>
<define-tag fixed-section>no</define-tag>

#use wml::debian::security



</dl>
