<define-tag pagetitle>DSA-4874-1 firefox-esr</define-tag>
<define-tag report_date>2021-3-24</define-tag>
<define-tag secrefs>CVE-2021-23981 CVE-2021-23982 CVE-2021-23984 CVE-2021-23987</define-tag>
<define-tag packages>firefox-esr</define-tag>
<define-tag isvulnerable>yes</define-tag>
<define-tag fixed>yes</define-tag>
<define-tag fixed-section>no</define-tag>

#use wml::debian::security



</dl>
