<define-tag pagetitle>DSA-4888-1 xen</define-tag>
<define-tag report_date>2021-4-10</define-tag>
<define-tag secrefs>CVE-2021-26933 CVE-2021-27379</define-tag>
<define-tag packages>xen</define-tag>
<define-tag isvulnerable>yes</define-tag>
<define-tag fixed>yes</define-tag>
<define-tag fixed-section>no</define-tag>

#use wml::debian::security



</dl>
