<define-tag pagetitle>DSA-4883-1 underscore</define-tag>
<define-tag report_date>2021-4-01</define-tag>
<define-tag secrefs>CVE-2021-23358 Bug#986171</define-tag>
<define-tag packages>underscore</define-tag>
<define-tag isvulnerable>yes</define-tag>
<define-tag fixed>yes</define-tag>
<define-tag fixed-section>no</define-tag>

#use wml::debian::security



</dl>
