<define-tag pagetitle>DSA-4715-1 imagemagick</define-tag>
<define-tag report_date>2020-7-02</define-tag>
<define-tag secrefs>CVE-2019-13300 CVE-2019-13304 CVE-2019-13305 CVE-2019-13306 CVE-2019-13307 CVE-2019-15140 CVE-2019-19948</define-tag>
<define-tag packages>imagemagick</define-tag>
<define-tag isvulnerable>yes</define-tag>
<define-tag fixed>yes</define-tag>
<define-tag fixed-section>no</define-tag>

#use wml::debian::security



</dl>
