<define-tag pagetitle>DSA-4602-1 xen</define-tag>
<define-tag report_date>2020-1-13</define-tag>
<define-tag secrefs>CVE-2019-17349 CVE-2019-17350 CVE-2019-18420 CVE-2019-18421 CVE-2019-18422 CVE-2019-18423 CVE-2019-18424 CVE-2019-18425 CVE-2019-19577 CVE-2019-19578 CVE-2019-19579 CVE-2019-19580 CVE-2019-19581 CVE-2019-19582 CVE-2019-19583 CVE-2018-12207 CVE-2018-12126 CVE-2018-12127 CVE-2018-12130 CVE-2019-11091 CVE-2019-11135 CVE-2019-17348 CVE-2019-17347 CVE-2019-17346 CVE-2019-17345 CVE-2019-17344 CVE-2019-17343 CVE-2019-17342 CVE-2019-17341 CVE-2019-17340</define-tag>
<define-tag packages>xen</define-tag>
<define-tag isvulnerable>yes</define-tag>
<define-tag fixed>yes</define-tag>
<define-tag fixed-section>no</define-tag>

#use wml::debian::security



</dl>
