<define-tag pagetitle>DSA-4670-1 tiff</define-tag>
<define-tag report_date>2020-4-29</define-tag>
<define-tag secrefs>CVE-2018-12900 CVE-2018-17000 CVE-2018-17100 CVE-2018-19210 CVE-2019-7663 CVE-2019-14973 CVE-2019-17546 Bug#902718 Bug#908778 Bug#909038 Bug#913675 Bug#934780</define-tag>
<define-tag packages>tiff</define-tag>
<define-tag isvulnerable>yes</define-tag>
<define-tag fixed>yes</define-tag>
<define-tag fixed-section>no</define-tag>

#use wml::debian::security



</dl>
