<define-tag pagetitle>DSA-4744-1 roundcube</define-tag>
<define-tag report_date>2020-8-12</define-tag>
<define-tag secrefs>CVE-2020-16145 Bug#968216</define-tag>
<define-tag packages>roundcube</define-tag>
<define-tag isvulnerable>yes</define-tag>
<define-tag fixed>yes</define-tag>
<define-tag fixed-section>no</define-tag>

#use wml::debian::security



</dl>
