<define-tag pagetitle>DSA-4723-1 xen</define-tag>
<define-tag report_date>2020-7-12</define-tag>
<define-tag secrefs>CVE-2020-11739 CVE-2020-11740 CVE-2020-11741 CVE-2020-11742 CVE-2020-11743 CVE-2020-15563 CVE-2020-15564 CVE-2020-15565 CVE-2020-15566 CVE-2020-15567</define-tag>
<define-tag packages>xen</define-tag>
<define-tag isvulnerable>yes</define-tag>
<define-tag fixed>yes</define-tag>
<define-tag fixed-section>no</define-tag>

#use wml::debian::security



</dl>
