<define-tag pagetitle>DLA-2762-1 grilo</define-tag>
<define-tag report_date>2021-9-21</define-tag>
<define-tag secrefs>CVE-2021-39365</define-tag>
<define-tag packages>grilo</define-tag>
<define-tag isvulnerable>yes</define-tag>
<define-tag fixed>yes</define-tag>
<define-tag fixed-section>no</define-tag>

#use wml::debian::security

