<define-tag pagetitle>DLA-2683-1 rxvt</define-tag>
<define-tag report_date>2021-06-09</define-tag>
<define-tag secrefs>CVE-2017-7483 CVE-2021-33477 Bug#861694</define-tag>
<define-tag packages>rxvt</define-tag>
<define-tag isvulnerable>yes</define-tag>
<define-tag fixed>yes</define-tag>
<define-tag fixed-section>no</define-tag>

#use wml::debian::security

