<define-tag pagetitle>DLA-2618-1 smarty3</define-tag>
<define-tag report_date>2021-04-08</define-tag>
<define-tag secrefs>CVE-2018-13982 CVE-2021-26119 CVE-2021-26120</define-tag>
<define-tag packages>smarty3</define-tag>
<define-tag isvulnerable>yes</define-tag>
<define-tag fixed>yes</define-tag>
<define-tag fixed-section>no</define-tag>

#use wml::debian::security

