<define-tag pagetitle>DLA-2649-1 cgal</define-tag>
<define-tag report_date>2021-05-04</define-tag>
<define-tag secrefs>CVE-2020-28601 CVE-2020-28636 CVE-2020-35628 CVE-2020-35636</define-tag>
<define-tag packages>cgal</define-tag>
<define-tag isvulnerable>yes</define-tag>
<define-tag fixed>yes</define-tag>
<define-tag fixed-section>no</define-tag>

#use wml::debian::security

