<define-tag pagetitle>DLA-2869-1 xorg-server</define-tag>
<define-tag report_date>2021-12-29</define-tag>
<define-tag secrefs>CVE-2021-4008 CVE-2021-4009 CVE-2021-4011</define-tag>
<define-tag packages>xorg-server</define-tag>
<define-tag isvulnerable>yes</define-tag>
<define-tag fixed>yes</define-tag>
<define-tag fixed-section>no</define-tag>

#use wml::debian::security

