<define-tag pagetitle>DLA-2535-1 ansible</define-tag>
<define-tag report_date>2021-1-27</define-tag>
<define-tag secrefs>CVE-2017-7481 CVE-2019-10156 CVE-2019-14846 CVE-2019-14904 Bug#862666 Bug#930065 Bug#942188</define-tag>
<define-tag packages>ansible</define-tag>
<define-tag isvulnerable>yes</define-tag>
<define-tag fixed>yes</define-tag>
<define-tag fixed-section>no</define-tag>

#use wml::debian::security

