<define-tag pagetitle>DSA-5372-1 rails</define-tag>
<define-tag report_date>2023-3-13</define-tag>
<define-tag secrefs>CVE-2021-22942 CVE-2021-44528 CVE-2022-21831 CVE-2022-22577 CVE-2022-23633 CVE-2022-27777 CVE-2023-22792 CVE-2023-22794 CVE-2023-22795 CVE-2023-22796 Bug#992586 Bug#1001817 Bug#1011940 Bug#1011941 Bug#1005389 Bug#1016982 Bug#1030050</define-tag>
<define-tag packages>rails</define-tag>
<define-tag isvulnerable>yes</define-tag>
<define-tag fixed>yes</define-tag>
<define-tag fixed-section>no</define-tag>

#use wml::debian::security



</dl>
