<define-tag pagetitle>DSA-5325-1 spip</define-tag>
<define-tag report_date>2023-1-24</define-tag>
<define-tag secrefs>CVE-2023-24258</define-tag>
<define-tag packages>spip</define-tag>
<define-tag isvulnerable>yes</define-tag>
<define-tag fixed>yes</define-tag>
<define-tag fixed-section>no</define-tag>

#use wml::debian::security



</dl>
