<define-tag pagetitle>DSA-5343-1 openssl</define-tag>
<define-tag report_date>2023-2-07</define-tag>
<define-tag secrefs>CVE-2022-2097 CVE-2022-4304 CVE-2022-4450 CVE-2023-0215 CVE-2023-0286 Bug#1023424</define-tag>
<define-tag packages>openssl</define-tag>
<define-tag isvulnerable>yes</define-tag>
<define-tag fixed>yes</define-tag>
<define-tag fixed-section>no</define-tag>

#use wml::debian::security



</dl>
