<define-tag pagetitle>DSA-5376-1 apache2</define-tag>
<define-tag report_date>2023-3-20</define-tag>
<define-tag secrefs>CVE-2006-20001 CVE-2022-36760 CVE-2022-37436 CVE-2023-25690 CVE-2023-27522</define-tag>
<define-tag packages>apache2</define-tag>
<define-tag isvulnerable>yes</define-tag>
<define-tag fixed>yes</define-tag>
<define-tag fixed-section>no</define-tag>

#use wml::debian::security



</dl>
