<define-tag pagetitle>DSA-5337-1 nova</define-tag>
<define-tag report_date>2023-2-01</define-tag>
<define-tag secrefs>CVE-2022-47951 Bug#1029561</define-tag>
<define-tag packages>nova</define-tag>
<define-tag isvulnerable>yes</define-tag>
<define-tag fixed>yes</define-tag>
<define-tag fixed-section>no</define-tag>

#use wml::debian::security



</dl>
