<define-tag pagetitle>DLA-895-1 openoffice.org-dictionaries</define-tag>
<define-tag report_date>2017-4-14</define-tag>
<define-tag secrefs>Bug##646693</define-tag>
<define-tag packages>openoffice.org-dictionaries</define-tag>
<define-tag isvulnerable>yes</define-tag>
<define-tag fixed>yes</define-tag>
<define-tag fixed-section>no</define-tag>

#use wml::debian::security

