<define-tag pagetitle>DLA-3265-1 exiv2</define-tag>
<define-tag report_date>2023-01-11</define-tag>
<define-tag secrefs>CVE-2017-11591 CVE-2017-14859 CVE-2017-14862 CVE-2017-14864 CVE-2017-17669 CVE-2017-18005 CVE-2018-8976 CVE-2018-17581 CVE-2018-19107 CVE-2018-19108 CVE-2018-19535 CVE-2018-20097 CVE-2019-13110 CVE-2019-13112 CVE-2019-13114 CVE-2019-13504 CVE-2019-14369 CVE-2019-14370 CVE-2019-17402 CVE-2020-18771 CVE-2021-29458 CVE-2021-32815 CVE-2021-34334 CVE-2021-37620 CVE-2021-37621 CVE-2021-37622 Bug#876893 Bug#885981 Bug#886006 Bug#903813 Bug#910060 Bug#913272 Bug#913273 Bug#915135</define-tag>
<define-tag packages>exiv2</define-tag>
<define-tag isvulnerable>yes</define-tag>
<define-tag fixed>yes</define-tag>
<define-tag fixed-section>no</define-tag>

#use wml::debian::security

