<define-tag pagetitle>DLA-3356-1 wireless-regdb</define-tag>
<define-tag report_date>2023-03-09</define-tag>
<define-tag secrefs>n/a</define-tag>
<define-tag packages>wireless-regdb</define-tag>
<define-tag isvulnerable>yes</define-tag>
<define-tag fixed>yes</define-tag>
<define-tag fixed-section>no</define-tag>

#use wml::debian::security

