<define-tag pagetitle>DLA-3282-1 git</define-tag>
<define-tag report_date>2023-01-26</define-tag>
<define-tag secrefs>CVE-2022-23521 CVE-2022-41903 Bug#1029114</define-tag>
<define-tag packages>git</define-tag>
<define-tag isvulnerable>yes</define-tag>
<define-tag fixed>yes</define-tag>
<define-tag fixed-section>no</define-tag>

#use wml::debian::security

