<define-tag pagetitle>DLA-3313-1 wireshark</define-tag>
<define-tag report_date>2023-02-13</define-tag>
<define-tag secrefs>CVE-2022-4345 CVE-2023-0411 CVE-2023-0412 CVE-2023-0413 CVE-2023-0415 CVE-2023-0417</define-tag>
<define-tag packages>wireshark</define-tag>
<define-tag isvulnerable>yes</define-tag>
<define-tag fixed>yes</define-tag>
<define-tag fixed-section>no</define-tag>

#use wml::debian::security

