<define-tag pagetitle>DLA-3304-1 fig2dev</define-tag>
<define-tag report_date>2023-01-31</define-tag>
<define-tag secrefs>CVE-2020-21529 CVE-2020-21531 CVE-2020-21532 CVE-2020-21676 CVE-2021-32280 Bug#960736</define-tag>
<define-tag packages>fig2dev</define-tag>
<define-tag isvulnerable>yes</define-tag>
<define-tag fixed>yes</define-tag>
<define-tag fixed-section>no</define-tag>

#use wml::debian::security

