<define-tag pagetitle>DLA-3269-1 libapreq2</define-tag>
<define-tag report_date>2023-01-14</define-tag>
<define-tag secrefs>CVE-2022-22728 Bug#1018191</define-tag>
<define-tag packages>libapreq2</define-tag>
<define-tag isvulnerable>yes</define-tag>
<define-tag fixed>yes</define-tag>
<define-tag fixed-section>no</define-tag>

#use wml::debian::security

