<define-tag pagetitle>DLA-3292-1 sofia-sip</define-tag>
<define-tag report_date>2023-01-29</define-tag>
<define-tag secrefs>CVE-2023-22741 Bug#1029654</define-tag>
<define-tag packages>sofia-sip</define-tag>
<define-tag isvulnerable>yes</define-tag>
<define-tag fixed>yes</define-tag>
<define-tag fixed-section>no</define-tag>

#use wml::debian::security

