<define-tag pagetitle>DLA-3339-1 binwalk</define-tag>
<define-tag report_date>2023-02-23</define-tag>
<define-tag secrefs>CVE-2022-4510</define-tag>
<define-tag packages>binwalk</define-tag>
<define-tag isvulnerable>yes</define-tag>
<define-tag fixed>yes</define-tag>
<define-tag fixed-section>no</define-tag>

#use wml::debian::security

