<define-tag pagetitle>DLA-2356-1 freerdp</define-tag>
<define-tag report_date>2020-08-30</define-tag>
<define-tag secrefs>CVE-2014-0791 CVE-2020-11042 CVE-2020-11045 CVE-2020-11046 CVE-2020-11048 CVE-2020-11058 CVE-2020-11521 CVE-2020-11522 CVE-2020-11523 CVE-2020-11525 CVE-2020-11526 CVE-2020-13396 CVE-2020-13397 CVE-2020-13398</define-tag>
<define-tag packages>freerdp</define-tag>
<define-tag isvulnerable>yes</define-tag>
<define-tag fixed>yes</define-tag>
<define-tag fixed-section>no</define-tag>

#use wml::debian::security

