<define-tag pagetitle>DLA-2085-1 zlib</define-tag>
<define-tag report_date>2020-1-29</define-tag>
<define-tag secrefs>CVE-2016-9840 CVE-2016-9841 CVE-2016-9842 CVE-2016-9843</define-tag>
<define-tag packages>zlib</define-tag>
<define-tag isvulnerable>yes</define-tag>
<define-tag fixed>yes</define-tag>
<define-tag fixed-section>no</define-tag>

#use wml::debian::security

