<define-tag pagetitle>DLA-2325-1 openjdk-8</define-tag>
<define-tag report_date>2020-08-13</define-tag>
<define-tag secrefs>CVE-2020-14556 CVE-2020-14577 CVE-2020-14578 CVE-2020-14579 CVE-2020-14581 CVE-2020-14583 CVE-2020-14593 CVE-2020-14621</define-tag>
<define-tag packages>openjdk-8</define-tag>
<define-tag isvulnerable>yes</define-tag>
<define-tag fixed>yes</define-tag>
<define-tag fixed-section>no</define-tag>

#use wml::debian::security

