<define-tag pagetitle>DLA-2080-1 iperf3</define-tag>
<define-tag report_date>2020-1-27</define-tag>
<define-tag secrefs>CVE-2016-4303 Bug#827116</define-tag>
<define-tag packages>iperf3</define-tag>
<define-tag isvulnerable>yes</define-tag>
<define-tag fixed>yes</define-tag>
<define-tag fixed-section>no</define-tag>

#use wml::debian::security

