<define-tag pagetitle>DLA-2056-1 waitress</define-tag>
<define-tag report_date>2020-01-01</define-tag>
<define-tag secrefs>CVE-2019-16789</define-tag>
<define-tag packages>waitress</define-tag>
<define-tag isvulnerable>yes</define-tag>
<define-tag fixed>yes</define-tag>
<define-tag fixed-section>no</define-tag>

#use wml::debian::security
