<define-tag pagetitle>DLA-1397-1 php5</define-tag>
<define-tag report_date>2018-6-26</define-tag>
<define-tag secrefs>CVE-2018-7584 CVE-2018-10545 CVE-2018-10546 CVE-2018-10547 CVE-2018-10548 CVE-2018-10549</define-tag>
<define-tag packages>php5</define-tag>
<define-tag isvulnerable>yes</define-tag>
<define-tag fixed>yes</define-tag>
<define-tag fixed-section>no</define-tag>

#use wml::debian::security

