<define-tag pagetitle>DLA-1510-1 glusterfs</define-tag>
<define-tag report_date>2018-9-20</define-tag>
<define-tag secrefs>CVE-2018-10904 CVE-2018-10907 CVE-2018-10911 CVE-2018-10913 CVE-2018-10914 CVE-2018-10923 CVE-2018-10926 CVE-2018-10927 CVE-2018-10928 CVE-2018-10929 CVE-2018-10930 Bug#909215</define-tag>
<define-tag packages>glusterfs</define-tag>
<define-tag isvulnerable>yes</define-tag>
<define-tag fixed>yes</define-tag>
<define-tag fixed-section>no</define-tag>

#use wml::debian::security

