<define-tag pagetitle>DLA-1483-1 389-ds-base</define-tag>
<define-tag report_date>2018-8-30</define-tag>
<define-tag secrefs>CVE-2018-10871 CVE-2018-10935 Bug#906985</define-tag>
<define-tag packages>389-ds-base</define-tag>
<define-tag isvulnerable>yes</define-tag>
<define-tag fixed>yes</define-tag>
<define-tag fixed-section>no</define-tag>

#use wml::debian::security

