<define-tag pagetitle>DLA-1587-1 pixman</define-tag>
<define-tag report_date>2018-11-22</define-tag>
<define-tag secrefs>CVE-2015-5297</define-tag>
<define-tag packages>pixman</define-tag>
<define-tag isvulnerable>yes</define-tag>
<define-tag fixed>yes</define-tag>
<define-tag fixed-section>no</define-tag>

#use wml::debian::security

