<define-tag pagetitle>DLA-1328-1 xerces-c</define-tag>
<define-tag report_date>2018-3-29</define-tag>
<define-tag secrefs>CVE-2017-12627 Bug#894050</define-tag>
<define-tag packages>xerces-c</define-tag>
<define-tag isvulnerable>yes</define-tag>
<define-tag fixed>yes</define-tag>
<define-tag fixed-section>no</define-tag>

#use wml::debian::security

