<define-tag pagetitle>DLA-1311-1 adminer</define-tag>
<define-tag report_date>2018-3-22</define-tag>
<define-tag secrefs>CVE-2018-7667 Bug##893668</define-tag>
<define-tag packages>adminer</define-tag>
<define-tag isvulnerable>yes</define-tag>
<define-tag fixed>yes</define-tag>
<define-tag fixed-section>no</define-tag>

#use wml::debian::security

