<define-tag pagetitle>DLA-1600-1 libarchive</define-tag>
<define-tag report_date>2018-11-29</define-tag>
<define-tag secrefs>CVE-2015-8915 CVE-2016-8687 CVE-2016-8688 CVE-2016-8689 CVE-2016-10209 CVE-2016-10349 CVE-2016-10350 CVE-2017-5601 CVE-2017-14166 CVE-2017-14501 CVE-2017-14502 CVE-2017-14503 Bug#853278 Bug#875960 Bug#875974 Bug#875966 Bug#874539 Bug#840934</define-tag>
<define-tag packages>libarchive</define-tag>
<define-tag isvulnerable>yes</define-tag>
<define-tag fixed>yes</define-tag>
<define-tag fixed-section>no</define-tag>

#use wml::debian::security

