<define-tag pagetitle>DLA-1343-1 ming</define-tag>
<define-tag report_date>2018-4-9</define-tag>
<define-tag secrefs>CVE-2018-6358 CVE-2018-7867 CVE-2018-7868 CVE-2018-7870 CVE-2018-7871 CVE-2018-7872 CVE-2018-7875 CVE-2018-9165</define-tag>
<define-tag packages>ming</define-tag>
<define-tag isvulnerable>yes</define-tag>
<define-tag fixed>yes</define-tag>
<define-tag fixed-section>no</define-tag>

#use wml::debian::security

