<define-tag pagetitle>DLA-1276-1 tomcat-native</define-tag>
<define-tag report_date>2018-2-11</define-tag>
<define-tag secrefs>CVE-2017-15698</define-tag>
<define-tag packages>tomcat-native</define-tag>
<define-tag isvulnerable>yes</define-tag>
<define-tag fixed>yes</define-tag>
<define-tag fixed-section>no</define-tag>

#use wml::debian::security

