<define-tag pagetitle>DSA-4394-1 rdesktop</define-tag>
<define-tag report_date>2019-2-18</define-tag>
<define-tag secrefs>CVE-2018-8791 CVE-2018-8792 CVE-2018-8793 CVE-2018-8794 CVE-2018-8795 CVE-2018-8796 CVE-2018-8797 CVE-2018-8798 CVE-2018-8799 CVE-2018-8800 CVE-2018-20174 CVE-2018-20175 CVE-2018-20176 CVE-2018-20177 CVE-2018-20178 CVE-2018-20179 CVE-2018-20180 CVE-2018-20181 CVE-2018-20182</define-tag>
<define-tag packages>rdesktop</define-tag>
<define-tag isvulnerable>yes</define-tag>
<define-tag fixed>yes</define-tag>
<define-tag fixed-section>no</define-tag>

#use wml::debian::security



</dl>
