<define-tag pagetitle>DSA-4435-1 libpng1.6</define-tag>
<define-tag report_date>2019-4-27</define-tag>
<define-tag secrefs>CVE-2019-7317 Bug#921355</define-tag>
<define-tag packages>libpng1.6</define-tag>
<define-tag isvulnerable>yes</define-tag>
<define-tag fixed>yes</define-tag>
<define-tag fixed-section>no</define-tag>

#use wml::debian::security



</dl>
