<define-tag pagetitle>DSA-4515-1 webkit2gtk</define-tag>
<define-tag report_date>2019-9-04</define-tag>
<define-tag secrefs>CVE-2019-8644 CVE-2019-8649 CVE-2019-8658 CVE-2019-8666 CVE-2019-8669 CVE-2019-8671 CVE-2019-8672 CVE-2019-8673 CVE-2019-8676 CVE-2019-8677 CVE-2019-8678 CVE-2019-8679 CVE-2019-8680 CVE-2019-8681 CVE-2019-8683 CVE-2019-8684 CVE-2019-8686 CVE-2019-8687 CVE-2019-8688 CVE-2019-8689 CVE-2019-8690</define-tag>
<define-tag packages>webkit2gtk</define-tag>
<define-tag isvulnerable>yes</define-tag>
<define-tag fixed>yes</define-tag>
<define-tag fixed-section>no</define-tag>

#use wml::debian::security



</dl>
