<define-tag pagetitle>DSA-5050-1 linux</define-tag>
<define-tag report_date>2022-1-20</define-tag>
<define-tag secrefs>CVE-2021-4155 CVE-2021-28711 CVE-2021-28712 CVE-2021-28713 CVE-2021-28714 CVE-2021-28715 CVE-2021-39685 CVE-2021-45095 CVE-2021-45469 CVE-2021-45480 CVE-2022-0185 CVE-2022-23222 Bug#988044 Bug#996974</define-tag>
<define-tag packages>linux</define-tag>
<define-tag isvulnerable>yes</define-tag>
<define-tag fixed>yes</define-tag>
<define-tag fixed-section>no</define-tag>

#use wml::debian::security



</dl>
