<define-tag pagetitle>DSA-5271-1 libxml2</define-tag>
<define-tag report_date>2022-11-05</define-tag>
<define-tag secrefs>CVE-2022-40303 CVE-2022-40304 Bug#1022224 Bug#1022225</define-tag>
<define-tag packages>libxml2</define-tag>
<define-tag isvulnerable>yes</define-tag>
<define-tag fixed>yes</define-tag>
<define-tag fixed-section>no</define-tag>

#use wml::debian::security



</dl>
