<define-tag pagetitle>DSA-5193-1 firefox-esr</define-tag>
<define-tag report_date>2022-7-27</define-tag>
<define-tag secrefs>CVE-2022-36318 CVE-2022-36319</define-tag>
<define-tag packages>firefox-esr</define-tag>
<define-tag isvulnerable>yes</define-tag>
<define-tag fixed>yes</define-tag>
<define-tag fixed-section>no</define-tag>

#use wml::debian::security



</dl>
