<define-tag pagetitle>DSA-5100-1 nbd</define-tag>
<define-tag report_date>2022-3-12</define-tag>
<define-tag secrefs>CVE-2022-26495 CVE-2022-26496 Bug#1003863 Bug#1006915</define-tag>
<define-tag packages>nbd</define-tag>
<define-tag isvulnerable>yes</define-tag>
<define-tag fixed>yes</define-tag>
<define-tag fixed-section>no</define-tag>

#use wml::debian::security



</dl>
