<define-tag pagetitle>DSA-5208-1 epiphany-browser</define-tag>
<define-tag report_date>2022-8-16</define-tag>
<define-tag secrefs>CVE-2022-29536 Bug#1009959</define-tag>
<define-tag packages>epiphany-browser</define-tag>
<define-tag isvulnerable>yes</define-tag>
<define-tag fixed>yes</define-tag>
<define-tag fixed-section>no</define-tag>

#use wml::debian::security



</dl>
