<define-tag pagetitle>DSA-5166-1 slurm-wlm</define-tag>
<define-tag report_date>2022-6-20</define-tag>
<define-tag secrefs>CVE-2022-29500 CVE-2022-29501 Bug#1010633 Bug#1010634</define-tag>
<define-tag packages>slurm-wlm</define-tag>
<define-tag isvulnerable>yes</define-tag>
<define-tag fixed>yes</define-tag>
<define-tag fixed-section>no</define-tag>

#use wml::debian::security



</dl>
