<define-tag pagetitle>DLA-1759-1 clamav</define-tag>
<define-tag report_date>2019-04-22</define-tag>
<define-tag secrefs>CVE-2019-1787 CVE-2019-1788 CVE-2019-1789</define-tag>
<define-tag packages>clamav</define-tag>
<define-tag isvulnerable>yes</define-tag>
<define-tag fixed>yes</define-tag>
<define-tag fixed-section>no</define-tag>

#use wml::debian::security

