<define-tag pagetitle>DLA-2000-1 pam-python</define-tag>
<define-tag report_date>2019-11-23</define-tag>
<define-tag secrefs>CVE-2019-16729 Bug#942514</define-tag>
<define-tag packages>pam-python</define-tag>
<define-tag isvulnerable>yes</define-tag>
<define-tag fixed>yes</define-tag>
<define-tag fixed-section>no</define-tag>

#use wml::debian::security

