<define-tag pagetitle>DLA-1853-1 libspring-java</define-tag>
<define-tag report_date>2019-07-13</define-tag>
<define-tag secrefs>CVE-2014-3578 CVE-2014-3625 CVE-2015-3192 CVE-2015-5211 CVE-2016-9878 Bug#760733 Bug#769698 Bug#796137 Bug#849167</define-tag>
<define-tag packages>libspring-java</define-tag>
<define-tag isvulnerable>yes</define-tag>
<define-tag fixed>yes</define-tag>
<define-tag fixed-section>no</define-tag>

#use wml::debian::security

