<define-tag pagetitle>DLA-1662-1 libthrift-java</define-tag>
<define-tag report_date>2019-2-6</define-tag>
<define-tag secrefs>CVE-2018-1320 Bug#918736</define-tag>
<define-tag packages>libthrift-java</define-tag>
<define-tag isvulnerable>yes</define-tag>
<define-tag fixed>yes</define-tag>
<define-tag fixed-section>no</define-tag>

#use wml::debian::security

