<define-tag pagetitle>DLA-2020-1 libonig</define-tag>
<define-tag report_date>2019-12-04</define-tag>
<define-tag secrefs>CVE-2019-19012 CVE-2019-19204 CVE-2019-19246 Bug#944959 Bug#945313</define-tag>
<define-tag packages>libonig</define-tag>
<define-tag isvulnerable>yes</define-tag>
<define-tag fixed>yes</define-tag>
<define-tag fixed-section>no</define-tag>

#use wml::debian::security

