<define-tag pagetitle>DLA-752-1 icedove</define-tag>
<define-tag report_date>2016-12-17</define-tag>
<define-tag secrefs>CVE-2016-5290 CVE-2016-5291 CVE-2016-5296 CVE-2016-5297 CVE-2016-9066 CVE-2016-9074 CVE-2016-9079</define-tag>
<define-tag packages>icedove</define-tag>
<define-tag isvulnerable>yes</define-tag>
<define-tag fixed>yes</define-tag>
<define-tag fixed-section>no</define-tag>

#use wml::debian::security

