<define-tag pagetitle>DLA-693-1 tiff</define-tag>
<define-tag report_date>2016-11-2</define-tag>
<define-tag secrefs>CVE-2014-8128 CVE-2015-7554 CVE-2015-8668 CVE-2016-3186 CVE-2016-3619 CVE-2016-3620 CVE-2016-3621 CVE-2016-3631 CVE-2016-3632 CVE-2016-3633 CVE-2016-3634 CVE-2016-5102 CVE-2016-5318 CVE-2016-5319 CVE-2016-5652 CVE-2016-6223 CVE-2016-8331 Bug#842043 Bug#842046 Bug#842361 Bug#842270</define-tag>
<define-tag packages>tiff</define-tag>
<define-tag isvulnerable>yes</define-tag>
<define-tag fixed>yes</define-tag>
<define-tag fixed-section>no</define-tag>

#use wml::debian::security

