<define-tag pagetitle>DLA-461-1 nagios3</define-tag>
<define-tag report_date>2016-5-7</define-tag>
<define-tag secrefs>CVE-2014-1878</define-tag>
<define-tag packages>nagios3</define-tag>
<define-tag isvulnerable>yes</define-tag>
<define-tag fixed>yes</define-tag>
<define-tag fixed-section>no</define-tag>

#use wml::debian::security

