<define-tag pagetitle>DLA-720-1 xen</define-tag>
<define-tag report_date>2016-11-24</define-tag>
<define-tag secrefs>CVE-2016-9379 CVE-2016-9380 CVE-2016-9381 CVE-2016-9382 CVE-2016-9383 CVE-2016-9386</define-tag>
<define-tag packages>xen</define-tag>
<define-tag isvulnerable>yes</define-tag>
<define-tag fixed>yes</define-tag>
<define-tag fixed-section>no</define-tag>

#use wml::debian::security

